{
  "blocks": {
    "btn": [],
    "promo": [],
    "dropcap": [],
    "page-header": [],
    "page-footer": [],
    "sprite-svg": [],
    "sprite-png": [],
    "section": [],
    "slider": [],
    "order-form": [],
    "modal-form": []
  },
  "addCssBefore": [
    "./src/less/bootstrap/bootstrap.less",
    "./src/less/variables.less",
    "./src/less/fonts.less",
    "./src/less/global.less"
  ],
  "addCssAfter": [],
  "copiedCss": [],
  "addJsBefore": [
    "./node_modules/jquery/dist/jquery.min.js",
    "./node_modules/jquery-migrate/dist/jquery-migrate.min.js",
    "./node_modules/bootstrap/dist/js/bootstrap.min.js"
  ],
  "addJsAfter": [
    "./src/js/script.js"
  ],
  "copiedJs": [],
  "addImages": [
    "./src/img/*.{jpg,jpeg,gif,png,svg,ico}"
  ],
  "directories": {
    "source": "./src/",
    "build": "./dist/",
    "blocksDirName": "blocks"
  }
}